{
  "data": [
    {
      "similarity": 1.0,
      "name": "131423683"
    },
    {
      "similarity": 0.8360655737704918,
      "name": "131445847"
    },
    {
      "similarity": 0.8305084745762712,
      "name": "131409131"
    },
    {
      "similarity": 0.8253968253968254,
      "name": "131443444"
    },
    {
      "similarity": 0.782608695652174,
      "name": "131445867"
    },
    {
      "similarity": 0.7727272727272727,
      "name": "85807038"
    },
    {
      "similarity": 0.7714285714285715,
      "name": "131445865"
    },
    {
      "similarity": 0.7671232876712328,
      "name": "87540751"
    },
    {
      "similarity": 0.7647058823529411,
      "name": "144193995"
    },
    {
      "similarity": 0.704225352112676,
      "name": "85803973"
    }
  ],
  "metadata": {
    "fileName": "*****",
    "executionTime": 0.07856753363004584,
    "definition": {
      "id": "pop",
      "uri": "nothing"
    }
  }
}